-57MJY$hF4*&mvUMj'tx
=pZJS7i.wZ0J)S46.RV9
l?I9U:X2UEZUlg6_<EV6
>jJ>D0'7eKu(^T<XFm=!
;tvuY\G;g?B*We\A6-'1
>oghUA()C363tpO5E"EO
=`^;P%fLGf%(JLu3`cu/
s8s\7oZ@oo;p;oC*eiU.
cgxKsEkX=tvMn*M;-U]O
SP0Nu(it`Ji4d2J6%.*^
^^/LUQ<bsVf#"WnR,?D[
vh0i O'B9arBR#6KB:@d
9<p#E<3`yn@LXv'@q\J`
t6[!r?rOPsR[Ak%]!%`)
*9p'#Lvr]ei'y?.LMQiq
&.Wv@Yy\h])72OyF#@we
NAHpN4Ypmg6? !=`KA>s
h:Ret(KiVj5HIZDcC$d_
JX[f1r.2XA[qbWM"ZZ*.
MJg'5^ag@g>jhu:_:uU-
